{
  "page": 3,
  "total_results": 123,
  "total_pages": 7,
  "results": [
    {
      "vote_count": 0,
      "id": 451492,
      "video": false,
      "vote_average": 0,
      "title": "Hong Kong Superman",
      "popularity": 1.000372,
      "poster_path": "/y1LxulrIDaxw52CyiDF2FpQPhSn.jpg",
      "original_language": "cn",
      "original_title": "香港超人大破摧花黨",
      "genre_ids": [
        28
      ],
      "backdrop_path": null,
      "adult": false,
      "overview": "Hong Kong Superman is a Hong Kong Martial Arts movie starring Sammo Hung.",
      "release_date": "1975-06-25"
    },
    {
      "vote_count": 0,
      "id": 107181,
      "video": false,
      "vote_average": 0,
      "title": "Goldface, the Fantastic Superman",
      "popularity": 1.119241,
      "poster_path": "/e3bHkNnPNlgbkuCSzyM8YLWnoh0.jpg",
      "original_language": "it",
      "original_title": "Goldface il fantastico Superman",
      "genre_ids": [
        12,
        80
      ],
      "backdrop_path": null,
      "adult": false,
      "overview": "Goldface fights dr. Cobra's, aided by a bare chested African named Kotar. When Kotar's not punching folks, he's eating peanuts, bugging out his eyes, and speaking gibberish while referring to Goldy as \"B'wana\".",
      "release_date": "1967-12-22"
    },
    {
      "vote_count": 0,
      "id": 488279,
      "video": false,
      "vote_average": 0,
      "title": "I Am Superman",
      "popularity": 1.105,
      "poster_path": "/jZSkryacdV2UMDHeNWJv1hNQZU0.jpg",
      "original_language": "en",
      "original_title": "I Am Superman",
      "genre_ids": [],
      "backdrop_path": null,
      "adult": false,
      "overview": "A fighting pitbull finds itself on a strange and unexpected journey that will ultimately decide its fate.",
      "release_date": ""
    },
    {
      "vote_count": 2,
      "id": 22701,
      "video": false,
      "vote_average": 6,
      "title": "Attack from Space",
      "popularity": 1.659518,
      "poster_path": "/fIJm2oqAc3nJ5QEQVTmINdJZgjB.jpg",
      "original_language": "en",
      "original_title": "Attack from Space",
      "genre_ids": [
        28,
        10769,
        878
      ],
      "backdrop_path": "/iYEMTpsnKPEDWjrV2rCeiNQAKWS.jpg",
      "adult": false,
      "overview": "The superhero Starman is sent by the Emerald Planet to protect Earth from belligerent aliens from the Sapphire Galaxy. The Sapphireans (or \"Spherions\") kidnap Dr. Yamanaka and force him to use his spaceship against the Earth.",
      "release_date": "1965-01-01"
    },
    {
      "vote_count": 2,
      "id": 300382,
      "video": true,
      "vote_average": 4,
      "title": "Superman Super Villains : Bizarro",
      "popularity": 1.081311,
      "poster_path": "/h0rG3zINa9ihUdJXGBOEfLbFNLm.jpg",
      "original_language": "en",
      "original_title": "Superman Super Villains : Bizarro",
      "genre_ids": [
        16
      ],
      "backdrop_path": null,
      "adult": false,
      "overview": "A cloning experiment gone wrong courtesy of Lex Luther, Bizarro now wanders the earth wreaking havoc with all the powers of Superman but none of the goodwill. More misguided than malevolent, Bizarro wages a twisted war against Superman who he sees as an impostor and a threat. Superman will have his hands full as Bizarro runs amok in these three thrilling adventures., This collection of three episodes from the animated Superman series focuses on his nemesis Bizarro. Included are the installments IDENTITY CRISIS, BIZARRO'S WORLD, and LITTLE BIG HEAD MAN.",
      "release_date": "2013-05-28"
    },
    {
      "vote_count": 2,
      "id": 300384,
      "video": true,
      "vote_average": 4,
      "title": "Superman Super Villains : Metallo",
      "popularity": 1.081292,
      "poster_path": "/zbBbTuy5aDEEGlMFAcRsEig0KNt.jpg",
      "original_language": "en",
      "original_title": "Superman Super Villains : Metallo",
      "genre_ids": [
        16
      ],
      "backdrop_path": null,
      "adult": false,
      "overview": "Driven by revenge, Metallo wants nothing more than to destroy Superman. Possessing an indestructible allow boy powered by a heart of Kryptonite, Metallo is one of the Man of Steel's most brutal, explosive villains. So get ready for three of the biggest battles Superman has yet to face. First, witness the birth of Metallo in The Way Of All Flesh as mercenary John Corben, once seemingly invincible, is brought to his knees by a crippling disease. In a desperate attempt for a new lease on life, Corben agrees for his mind to be transplanted into a metal android skeleton by none other than Lex Luthor. Then a loss of memory allows Metallo to play the hero in Action Figures, but playtime is over when Superman's appearance bring back the true monster inside. In Superman's Pal, Jimmy Olsen is bait to lure Superman into a trap with deadly consequences. It's a collision of metal and mayhem that will leave you cheering for more!",
      "release_date": "2013-05-28"
    },
    {
      "vote_count": 0,
      "id": 419153,
      "video": false,
      "vote_average": 0,
      "title": "The Iraqi Superman",
      "popularity": 1.047064,
      "poster_path": "/mipXPLBuIkohLjLFeUAEVgrMzYT.jpg",
      "original_language": "ar",
      "original_title": "The Iraqi Superman",
      "genre_ids": [],
      "backdrop_path": null,
      "adult": false,
      "overview": "A tormented young man constructs an ingenious devise to rescue his father from Abu Ghraib prison. What he finds there is far from his expectations, revealing the mistreatment and torture of prisoners. His hopes and dreams for a brighter future are dashed upon finding his father.",
      "release_date": "2016-10-01"
    },
    {
      "vote_count": 0,
      "id": 429696,
      "video": false,
      "vote_average": 0,
      "title": "Ultimate Superman Collection",
      "popularity": 1.005625,
      "poster_path": "/ffAPLfGLx1oywxQUfydzvJZtvbx.jpg",
      "original_language": "en",
      "original_title": "Ultimate Superman Collection",
      "genre_ids": [],
      "backdrop_path": null,
      "adult": false,
      "overview": "This is a compilation of older and current Superman Feature Films.",
      "release_date": ""
    },
    {
      "vote_count": 0,
      "id": 20484,
      "video": false,
      "vote_average": 0,
      "title": "Superman: The Lost Episodes",
      "popularity": 1.003346,
      "poster_path": "/2GkL9qXvNV4tORP5yIT4isa9Prx.jpg",
      "original_language": "en",
      "original_title": "Superman: The Lost Episodes",
      "genre_ids": [
        28,
        10751
      ],
      "backdrop_path": "/5pjxUGzlRKkwY6Z9tEIXX9Cf7Jv.jpg",
      "adult": false,
      "overview": "Superman - The Lost Episodes were produced after the demise of Fleischer Studios and the exit of Dave Fleischer. Unlike the first nine episodes (Max Fleischer's Superman) these eight are far more modern. They were all produced in Famous Studios' New York facilities. They are among the best animation ever created. Seen here in fully restored color, prepare yourself for the ride of your life!",
      "release_date": "1999-05-01"
    },
    {
      "vote_count": 0,
      "id": 433256,
      "video": false,
      "vote_average": 0,
      "title": "Superman: Learning to Fly",
      "popularity": 1.002353,
      "poster_path": null,
      "original_language": "en",
      "original_title": "Superman: Learning to Fly",
      "genre_ids": [
        99
      ],
      "backdrop_path": null,
      "adult": false,
      "overview": "Documentary on the creation of the animated series.",
      "release_date": "2005-01-25"
    },
    {
      "vote_count": 5,
      "id": 228088,
      "video": false,
      "vote_average": 4.7,
      "title": "Spider-Man - Once Upon a Time the Super Heroes",
      "popularity": 2.981132,
      "poster_path": "/es2zQC871kiQC2d9ylCE3Di2MSZ.jpg",
      "original_language": "fr",
      "original_title": "De Superman à Spider-Man: L'aventure des super-héros",
      "genre_ids": [
        16,
        99
      ],
      "backdrop_path": "/cRsi4NPp2ASGbTpDNVGFQZ7Vgkc.jpg",
      "adult": false,
      "overview": "A documentary about the history of Marvel comics.",
      "release_date": "2012-06-01"
    }
  ]
}